/cad/XCELIUM1809/tools.lnx86/inca/bin/xmsim
Obtained 17 stack frames.
/cad/XCELIUM1809/tools.lnx86/inca/bin/../../lib/libcbreakpad.so(_Z13use_backtracev+0xa1) [0xf759b09d]
/cad/XCELIUM1809/tools.lnx86/inca/bin/../../lib/libcbreakpad.so(cbpad_generate_dump_on_demand+0x84) [0xf759b3d5]
xmsim() [0x8ee6322]
xmsim(serror+0x1a) [0x8ee6eba]
xmsim() [0x8ecdd3e]
[0xf7783400]
xmsim() [0x80e416a]
xmsim() [0x8ecd182]
xmsim() [0x8ecdcc9]
[0xf7783400]
[0xf7783430]
/lib/libc.so.6(nanosleep+0x20) [0x496b60]
/lib/libc.so.6(sleep+0x150) [0x4969b0]
xmsim() [0x9331106]
xmsim() [0x9331b9d]
xmsim() [0x9331c50]
xmsim() [0x939df23]
